…
## Data

#### EU

1)  Read table data

<!-- end list -->

``` r
EU <- read_xlsx("Input/EU.xlsx")
EU
```

    ## # A tibble: 27 x 7
    ##     ...1 `Country Code` Country        `% Education Expenses 2009` `Growth 2010–2011` `% of Hi-tec Exports` `Hi-tec Intensity`
    ##    <dbl> <chr>          <chr>                                <dbl>              <dbl>                 <dbl>              <dbl>
    ##  1     1 BE             Belgium                               42                 1.05                   8.8                  0
    ##  2     2 BG             Bulgaria                              27.9               1.06                   4.6                  0
    ##  3     3 CZ             Czech Republic                        17.5               1.04                  15.2                  0
    ##  4     4 DK             Denmark                               40.7               1.07                  12.3                  0
    ##  5     5 DE             Germany                               29.4               1.07                  14                    0
    ##  6     6 EE             Estonia                               35.9               1.17                   6.9                  0
    ##  7     7 IE             Ireland                               48.9               1.09                  22.1                  1
    ##  8     8 ES             Spain                                 39.4               1.07                   4.8                  0
    ##  9     9 FR             France                                43.2               1.04                  19.7                  1
    ## 10    10 IT             Italy                                 19                 1.07                   6.8                  0
    ## # ... with 17 more rows
…
